DEVICE,POWER USE TOTAL (mAh),POWER USE APPS (mAh),DURATION (m:s:ms)
screen,35.2,35.2,21:59:514
cpu,22.9,22.9,-
camera,9.71,9.71,3:32:759
system_services,1.79,1.79,-
audio,9.40,9.40,21:2:456
mobile_radio,71.3,49.8,13:41:648
sensors,0.135,0.135,-
gnss,0.0214,0.0214,-
wifi,4.67,2.22,3:50:628
idle,6.81,0,21:59:514
